{
  "fr-FR": {
    "Sorry...": "Sorry...",
    "It's not you, it's us.": "Ce n'est pas vous, c'est nous.",
    "The server is currently unable to handle this request. Please be patient or try again later.": "Le serveur est actuellement incapable de traiter cette demande. Veuillez être patient ou réessayer plus tard.",
    "Internal server error": "Erreur interne du serveur",
    "Go to Homepage": "5"
  },
  "es-ES": {
    "Sorry...": "Lo sentimos...",
    "It's not you, it's us.": "No eres tú, somos nosotros.",
    "The server is currently unable to handle this request. Please be patient or try again later.": "El servidor no puede gestionar esta solicitud. Por favor, sea paciente o inténtelo de nuevo más tarde.",
    "Internal server error": "Error interno del servidor",
    "Go to Homepage": "Ir a página principal"
  },
  "ja-JP": {
    "Sorry...": "Sorry...",
    "It's not you, it's us.": "それはあなたではなく、私たちです。",
    "The server is currently unable to handle this request. Please be patient or try again later.": "サーバーは現在、このリクエストを処理できません。 しばらくお待ちいただくか、後でもう一度お試しください。",
    "Internal server error": "内部サーバーエラー",
    "Go to Homepage": "ホームページに移動"
  },
  "pt-BR": {
    "Sorry...": "Desculpa...",
    "It's not you, it's us.": "Não é você, somos nós.",
    "The server is currently unable to handle this request. Please be patient or try again later.": "No momento, o servidor não pode lidar com esta solicitação. Por favor, seja paciente ou tente novamente mais tarde.",
    "Internal server error": "Erro interno do servidor",
    "Go to Homepage": "Ir para Página Inicial"
  }
}